M11-2: Introduction to Functional Programming in R
…
# A tibble: 7 × 2
  indicator                                 n
  <chr>                                 <int>
1 Lower Secondary Education               739
2 Post-Secondary Non-Tertiary Education   494
3 Pre-Primary Education                   837
4 Primary Education                      1029
5 Secondary Education                     840
6 Tertiary Education                      550
7 Upper Secondary Education               700

student_ratio %>% count(country)

# A tibble: 232 × 2
   country                  n
   <chr>                <int>
 1 Afghanistan             13
 2 Africa (Northern)       30
 3 Africa (Sub-Saharan)    28
 4 Albania                 36
 5 Algeria                 18
 6 Andorra                 29
 7 Angola                   7
 8 Antigua and Barbuda     13
 9 Arab States             30
10 Argentina                5
# ℹ 222 more rows
…
